Croatia - data exploration
…
Setup

Load libraries, theme, data

Understanding the dates

It appears that quarters are numbered from 0 (starting Jan 1960) to 200 (starting Jan 2010) to 225 (starting April 2016)

data %>% 
  group_by(q_beg) %>% 
  summarize(min = min(begin_process_date), 
            max = max(begin_process_date)) %>%
  arrange(q_beg)

## # A tibble: 147 x 3
##    q_beg min        max       
##    <dbl> <date>     <date>    
##  1    -1 1959-10-05 1959-10-05
##  2    33 1968-05-27 1968-05-27
##  3    40 1970-03-31 1970-03-31
##  4    67 1976-12-21 1976-12-21
##  5    68 1977-02-07 1977-02-07
##  6    69 1977-04-25 1977-04-25
##  7    73 1978-06-02 1978-06-02
##  8    74 1978-07-11 1978-07-11
##  9    81 1980-05-13 1980-06-25
## 10    82 1980-09-22 1980-09-22
## # ... with 137 more rows

Months are numbered from 0 (Jan 2010) to 600 (Jan 2010) to 676 (May 2016)

data %>% 
  group_by(m_beg) %>% 
  summarize(min = min(begin_process_date), 
            max = max(begin_process_date)) %>%
  arrange(m_beg) 

## # A tibble: 392 x 3
##    m_beg min        max       
##    <dbl> <date>     <date>    
##  1    -3 1959-10-05 1959-10-05
##  2   100 1968-05-27 1968-05-27
##  3   122 1970-03-31 1970-03-31
##  4   203 1976-12-21 1976-12-21
##  5   205 1977-02-07 1977-02-07
##  6   207 1977-04-25 1977-04-25
##  7   221 1978-06-02 1978-06-02
##  8   222 1978-07-11 1978-07-11
##  9   244 1980-05-13 1980-05-13
## 10   245 1980-06-23 1980-06-25
## # ... with 382 more rows

What does a row mean?

It appears that each row is a unique firm id and case id combination. Some cases appear to involve multiple firms. Firm id here is OIB number (a tax identification number - for persons and legal entities)

#each row = unique firm id and case id combination
data %>% count(case_id, firm_id) %>% arrange(desc(n)) 

## # A tibble: 1,371,345 x 3
##    case_id firm_id         n
##      <dbl> <chr>       <int>
##  1   91905 91547293790     1
##  2   91937 46512020549     1
##  3   91937 85584865987     1
##  4   91939 44263013208     1
##  5   91939 74221993288     1
##  6   91940 94989605030     1
##  7   92002 04053650275     1
##  8   92003 62515460662     1
##  9   92004 31268189480     1
## 10   92004 71421617824     1
## # ... with 1,371,335 more rows

#some cases appear to involve multiple firms
data %>% count(case_id)

## # A tibble: 1,140,286 x 2
##    case_id     n
##      <dbl> <int>
##  1   91905     1
##  2   91937     2
##  3   91939     2
##  4   91940     1
##  5   92002     1
##  6   92003     1
##  7   92004     2
##  8   92036     2
##  9   92046     1
## 10   92069     1
## # ... with 1,140,276 more rows

#cases appear to always change case ids when going to different courts
#since every case_id corresponds only to one court
data %>% count(case_id, court_id)

## # A tibble: 1,140,286 x 3
##    case_id court_id     n
##      <dbl>    <dbl> <int>
##  1   91905       13     1
##  2   91937       13     2
##  3   91939       13     2
##  4   91940       13     1
##  5   92002       13     1
##  6   92003       13     1
##  7   92004       13     2
##  8   92036      577     2
##  9   92046      577     1
## 10   92069      577     1
## # ... with 1,140,276 more rows

#many firms have multiple case ids related to them (up to 82k in one case???)
data %>% count(firm_id) %>% arrange(desc(n))

## # A tibble: 87,851 x 2
##    firm_id         n
##    <chr>       <int>
##  1 68419124305 82028
##  2 81793146560 53319
##  3 29524210204 51696
##  4 85584865987 39922
##  5 28921383001 38747
##  6 85821130368 33021
##  7 26187994862 28868
##  8 52634238587 21887
##  9 02958272670 19639
## 10 74364571096 16067
## # ... with 87,841 more rows
…
What do variables mean?

Courts Note: court_name and court_id are unique court identifiers

data_nodupl %>% 
  count(court_name, court_id) %>% 
  arrange(desc(n))

## # A tibble: 104 x 3
##                               court_name court_id      n
##                                <dbl+lbl>    <dbl>  <int>
##  1   1 [Municipal Civil Court in Zagreb]      577 190402
##  2  80 [Commercial Court in Zagreb]            13 112868
##  3  50 [Municipal Court in Split]               7  54758
##  4 101 [Zagreb County Court]                    9  47030
##  5  42 [Municipal Court of Rijeka]              8  33555
##  6   3 [Municipal Labor Court in Zagreb]     5851  32409
##  7  77 [Commercial Court in Split]            114  27929
##  8  35 [Municipal Court of Osijek]           5107  27292
##  9  74 [Commercial Court in Rijeka]            17  25931
## 10  40 [Municipal Court in Pula - Pula]        21  23196
## # ... with 94 more rows
…
Judges There are 2,284 judge IDs overall that appear in this dataset and only 2,245 judge names.This means that up to about 2% judge names have multiple judge IDs corresponding to them (maybe these are different judges that just happen to have same names?). It might be safer to use the IDs, not names then.

data_nodupl %>% count(assign_judge_id, assign_judge_name) %>% arrange(desc(n))

## # A tibble: 2,284 x 3
##    assign_judge_id assign_judge_name                      n
##              <dbl> <chr>                              <int>
##  1             695 "Ksenija imi\u0087"             11711
##  2      1000002644 "Marina Blai\u0087"              6227
##  3             165 Mirjana Chour Hrak                6042
##  4      1000003104 Anna Preosti                        5879
##  5           19485 Marija Ragu                       5082
##  6             185 "Nada Neki\u0087-Plevko"           4590
##  7             202 Zrinka Terlep                       4333
##  8           27347 "Ivana Lovri\u0087 Vida\u008dek"  4326
##  9      1000001375 "Izabela Barbi\u0087"              4174
## 10            3512 "Gordana Mua Andrei\u0087"       4055
## # ... with 2,274 more rows

data_nodupl %>% count(assign_judge_id) %>% arrange(desc(n))

## # A tibble: 2,284 x 2
##    assign_judge_id     n
##              <dbl> <int>
##  1             695 11711
##  2      1000002644  6227
##  3             165  6042
##  4      1000003104  5879
##  5           19485  5082
##  6             185  4590
##  7             202  4333
##  8           27347  4326
##  9      1000001375  4174
## 10            3512  4055
## # ... with 2,274 more rows

data_nodupl %>% count(assign_judge_name) %>% arrange(desc(n))

## # A tibble: 2,245 x 2
##    assign_judge_name                      n
##    <chr>                              <int>
##  1 "Ksenija imi\u0087"             11711
##  2 "Marina Blai\u0087"              6227
##  3 Mirjana Chour Hrak                6042
##  4 Anna Preosti                        5879
##  5 Marija Ragu                       5082
##  6 "Nada Neki\u0087-Plevko"           4590
##  7 Zrinka Terlep                       4333
##  8 "Ivana Lovri\u0087 Vida\u008dek"  4326
##  9 "Izabela Barbi\u0087"              4174
## 10 "Gordana Mua Andrei\u0087"       4055
## # ... with 2,235 more rows
…
